$ 1 0.000015625 0.7703437568215379 71 5 50 5e-11
183 208 208 304 208 0 0.5 1.66 3.33 12 0
w 304 160 304 208 0
w 208 160 208 208 0
w 208 128 208 160 0
w 304 128 304 160 0
d 304 128 208 128 2 1N4148
c 208 208 208 272 0 2.2000000000000003e-9 1.9481418796114631 0.001
O 208 160 160 160 0 0
x 229 175 283 178 4 12 Saw\sCore
x 266 228 290 231 4 12 U2A
x -180 11 -56 14 4 24 U1\s-\sLM324
x -180 41 -63 44 4 24 U2\s-\s40106
w 208 112 208 128 0
a 352 128 432 128 9 12 -12 1000000 1.9481223983874794 1.9481418796114631 100000
w 352 144 352 176 0
w 352 176 432 176 0
w 432 176 432 128 0
c 432 128 480 128 0 2.2000000000000003e-9 4.826526548977969 0.001
r 480 128 480 176 0 100000
g 480 176 480 192 0 0
w 208 112 352 112 0
w 480 128 544 128 0
x 365 59 397 62 4 12 Buffer
x 370 79 394 82 4 12 U1A
a 544 144 624 144 9 12 -12 1000000 -2.878375366836821 -2.8784041505904896 100000
w 624 144 640 144 0
w 544 160 544 208 0
r 576 208 624 208 0 100000
w 624 208 624 144 0
x 455 345 719 348 4 24 TODO:\sFix\sgain\sresistors
r 544 256 544 288 0 32000
g 544 288 544 304 0 0
g 208 272 208 288 0 0
x 530 58 605 61 4 12 Saw\sAmplifier
x 557 79 581 82 4 12 U1B
w 160 208 208 208 2
w 544 256 544 224 0
w 544 208 576 208 0
r 160 208 144 256 0 100000
g 144 256 128 304 0 0
c 640 144 672 144 0 0.00001 0.0009999999720156083 0.001
w 672 144 704 144 0
w -128 240 -80 240 0
w -176 256 -272 256 2
g -128 272 -128 320 0 0
t -176 256 -128 256 0 1 0.6817090010321502 0.6996372528575939 100 default
g -288 288 -288 304 0 0
R -288 224 -288 208 0 0 40 12 0 0 0.5
174 -288 224 -288 288 1 1000 0.38120000000000004 Coarse Tune
r 336 272 336 288 0 1000
o 7 1 0 28686 20.324233401912284 0.0001 0 1 Saw\sOut
o 6 1 0 20494 40 0.1 1 2 6 3
